Create A Summary Table — create_summ_tbl • wranglr
…
    A tibble object with rows (features) and columns as the
summary statistics listed in .funs.

    See also

    mad(), median(), sd(), min(), max()

    Author

    Stu Field

    Examples

create_summ_tbl(simdata)
#> # A tibble: 40 × 7
#>    Feature       min median  mean    sd   mad   max
#>    <chr>       <dbl>  <dbl> <dbl> <dbl> <dbl> <dbl>
#>  1 seq.2802.68 1393.  2805. 2798.  515.  495. 4325.
#>  2 seq.9251.29 1598.  2801. 2807.  546.  624. 3986.
#>  3 seq.1942.70 1543.  2668. 2710.  556.  603. 3882.
#>  4 seq.5751.80 1496   2727. 2739.  561.  576. 3948.
#>  5 seq.9608.12 1056.  2708. 2753.  642.  553. 4905.
#>  6 seq.3459.49 1232.  2496. 2500.  504.  528. 3800.
#>  7 seq.3865.56  865.  2487. 2500   501.  526. 3631.
#>  8 seq.3363.21 1179.  2489. 2500.  493.  477. 3999.
#>  9 seq.4487.88 1304.  2501. 2500   509.  465. 3752.
#> 10 seq.5994.84 1297   2508. 2500.  509.  498. 4231.
#> # ℹ 30 more rows
create_summ_tbl(simdata, gender)
#> # A tibble: 40 × 13
#>    Feature   min_F min_M median_F median_M mean_F mean_M  sd_F  sd_M mad_F
#>    <chr>     <dbl> <dbl>    <dbl>    <dbl>  <dbl>  <dbl> <dbl> <dbl> <dbl>
#>  1 seq.2802… 1393. 1765.    2710.    2891.  2730.  2869.  568.  449.  433.
#>  2 seq.9251… 1738. 1598.    2758     2824.  2736.  2881.  535.  553.  598.
#>  3 seq.1942… 1543. 1668.    2594.    2714.  2658.  2765.  580.  529.  576.
#>  4 seq.5751… 1766. 1496     2651.    2783.  2697.  2782.  546.  580.  618.
#>  5 seq.9608… 1056. 1357.    2854.    2501.  2914.  2585.  671.  571.  598.
#>  6 seq.3459… 1461. 1232.    2434.    2610   2446.  2556.  529.  475.  486.
#>  7 seq.3865… 1607.  865.    2497.    2486   2545.  2453.  506.  498.  486.
#>  8 seq.3363… 1179. 1536.    2493.    2484.  2511.  2489.  543.  441.  490.
#>  9 seq.4487… 1304. 1455.    2514.    2487.  2501.  2499.  549.  469.  479.
#> 10 seq.5994… 1527. 1297     2524.    2468.  2509.  2490.  549.  470.  514.
#> # ℹ 30 more rows
#> # ℹ 3 more variables: mad_M <dbl>, max_F <dbl>, max_M <dbl>

# Arbitrary 3 groupings
simdata$group <- sample(1:3, nrow(simdata), replace = TRUE)
create_summ_tbl(simdata, "group")
#> # A tibble: 40 × 19
#>    Feature     min_1 min_2 min_3 median_1 median_2 median_3 mean_1 mean_2
#>    <chr>       <dbl> <dbl> <dbl>    <dbl>    <dbl>    <dbl>  <dbl>  <dbl>
#>  1 seq.2802.68 1393. 2082. 1798.    2702.    2880.    2799.  2721.  2871.
#>  2 seq.9251.29 1862. 1598. 1873.    2819.    2812.    2760.  2821.  2820.
#>  3 seq.1942.70 2159. 1543. 1680.    2831.    2611.    2558.  2810.  2687.
#>  4 seq.5751.80 1496  1766. 1808.    2737.    2633.    2774.  2756.  2687.
#>  5 seq.9608.12 1056. 1500. 1907.    2596     2756     2693.  2696.  2817.
#>  6 seq.3459.49 1461. 1232. 1508.    2517.    2570.    2396.  2580.  2490.
#>  7 seq.3865.56  865. 1819. 1607.    2668.    2486.    2433.  2568.  2518.
#>  8 seq.3363.21 1984. 1179. 1627.    2603.    2549.    2445.  2647.  2443.
#>  9 seq.4487.88 1455. 1448  1304.    2378.    2619     2501.  2512.  2556.
#> 10 seq.5994.84 1625  1297  1566.    2420.    2508.    2502.  2512.  2500.
#> # ℹ 30 more rows
#> # ℹ 10 more variables: mean_3 <dbl>, sd_1 <dbl>, sd_2 <dbl>, sd_3 <dbl>,
#> #   mad_1 <dbl>, mad_2 <dbl>, mad_3 <dbl>, max_1 <dbl>, max_2 <dbl>,
#> #   max_3 <dbl>
…
